C:\Users\francesco\git\cg11\src\main\java\it\polimi\ingsw\cg11\messages\SerializableFinish.java
C:\Users\francesco\git\cg11\src\main\java\it\polimi\ingsw\cg11\server\model\exceptions\market\NoSuchOfferException.java
C:\Users\francesco\git\cg11\src\main\java\it\polimi\ingsw\cg11\server\model\cards\Deck.java
C:\Users\francesco\git\cg11\src\main\java\it\polimi\ingsw\cg11\client\model\map\OfferChart.java
C:\Users\francesco\git\cg11\src\main\java\it\polimi\ingsw\cg11\client\view\connections\ClientRMIView.java
C:\Users\francesco\git\cg11\src\main\java\it\polimi\ingsw\cg11\server\view\rmi\RemoteFactoryImpl.java
C:\Users\francesco\git\cg11\src\main\java\it\polimi\ingsw\cg11\server\model\exceptions\player\resources\NegativeValueException.java
C:\Users\francesco\git\cg11\src\main\java\it\polimi\ingsw\cg11\server\model\mapcomponents\map\StandardMapFactory.java
C:\Users\francesco\git\cg11\src\main\java\it\polimi\ingsw\cg11\server\model\actionsfactory\BuildEmporiumWithPermitCardFactory.java
C:\Users\francesco\git\cg11\src\main\java\it\polimi\ingsw\cg11\client\model\map\ClientCity.java
C:\Users\francesco\git\cg11\src\main\java\it\polimi\ingsw\cg11\server\model\exceptions\player\NoSuchPlayerException.java
C:\Users\francesco\git\cg11\src\main\java\it\polimi\ingsw\cg11\server\model\player\actions\OfferAssistants.java
C:\Users\francesco\git\cg11\src\main\java\it\polimi\ingsw\cg11\server\model\utils\transactions\MoneyTransaction.java
C:\Users\francesco\git\cg11\src\main\java\it\polimi\ingsw\cg11\server\model\mapcomponents\map\RandomStandardMapFactory.java
C:\Users\francesco\git\cg11\src\main\java\it\polimi\ingsw\cg11\server\model\exceptions\tokens\NoSuchCouncillorException.java
C:\Users\francesco\git\cg11\src\main\java\it\polimi\ingsw\cg11\messages\SerializableEngageAssistant.java
C:\Users\francesco\git\cg11\src\main\java\it\polimi\ingsw\cg11\server\model\utils\visitorpattern\Visitor.java
C:\Users\francesco\git\cg11\src\main\java\it\polimi\ingsw\cg11\client\model\changes\MarketActionsTranslator.java
C:\Users\francesco\git\cg11\src\main\java\it\polimi\ingsw\cg11\client\model\cards\ClientPermitCard.java
C:\Users\francesco\git\cg11\src\main\java\it\polimi\ingsw\cg11\server\model\player\resources\StandardPlayerDataFactory.java
C:\Users\francesco\git\cg11\src\main\java\it\polimi\ingsw\cg11\server\model\cards\PermitCard.java
C:\Users\francesco\git\cg11\src\main\java\it\polimi\ingsw\cg11\messages\SerializableOfferPermitCard.java
C:\Users\francesco\git\cg11\src\main\java\it\polimi\ingsw\cg11\client\view\cli\ModelShows.java
C:\Users\francesco\git\cg11\src\main\java\it\polimi\ingsw\cg11\server\model\actionsfactory\FinishFactory.java
C:\Users\francesco\git\cg11\src\main\java\it\polimi\ingsw\cg11\server\model\exceptions\card\EmptyPoliticDeckException.java
C:\Users\francesco\git\cg11\src\main\java\it\polimi\ingsw\cg11\server\model\utils\transactions\Transaction.java
C:\Users\francesco\git\cg11\src\main\java\it\polimi\ingsw\cg11\server\model\actionsfactory\ChooseExtraPermitBonusFactory.java
C:\Users\francesco\git\cg11\src\main\java\it\polimi\ingsw\cg11\server\view\rmi\RMIView.java
C:\Users\francesco\git\cg11\src\main\java\it\polimi\ingsw\cg11\client\model\map\ClientMapFactory.java
C:\Users\francesco\git\cg11\src\main\java\it\polimi\ingsw\cg11\server\model\player\actions\AcceptMarketOffer.java
C:\Users\francesco\git\cg11\src\main\java\it\polimi\ingsw\cg11\server\model\exceptions\player\state\IllegalStateChangeException.java
C:\Users\francesco\git\cg11\src\main\java\it\polimi\ingsw\cg11\server\model\player\actions\ChooseExtraPermitBonus.java
C:\Users\francesco\git\cg11\src\main\java\it\polimi\ingsw\cg11\client\model\changes\ActionsTranslator.java
C:\Users\francesco\git\cg11\src\main\java\it\polimi\ingsw\cg11\server\model\exceptions\card\NoSuchPoliticCardException.java
C:\Users\francesco\git\cg11\src\main\java\it\polimi\ingsw\cg11\server\model\player\actionspool\PlayerActionExecutor.java
C:\Users\francesco\git\cg11\src\main\java\it\polimi\ingsw\cg11\server\model\mapcomponents\map\GamePhase.java
C:\Users\francesco\git\cg11\src\main\java\it\polimi\ingsw\cg11\server\model\exceptions\map\NotLinkedCitiesException.java
C:\Users\francesco\git\cg11\src\main\java\it\polimi\ingsw\cg11\messages\SerializableAction.java
C:\Users\francesco\git\cg11\src\main\java\it\polimi\ingsw\cg11\server\model\exceptions\utils\TransactionException.java
C:\Users\francesco\git\cg11\src\main\java\it\polimi\ingsw\cg11\server\model\exceptions\card\NoSuchPermitCardException.java
C:\Users\francesco\git\cg11\src\main\java\it\polimi\ingsw\cg11\server\model\exceptions\player\action\NotCorrectGamePhaseException.java
C:\Users\francesco\git\cg11\src\main\java\it\polimi\ingsw\cg11\server\model\utils\observerpattern\Observable.java
C:\Users\francesco\git\cg11\src\main\java\it\polimi\ingsw\cg11\server\model\market\MarketOffer.java
C:\Users\francesco\git\cg11\src\main\java\it\polimi\ingsw\cg11\server\model\cards\Card.java
C:\Users\francesco\git\cg11\src\main\java\it\polimi\ingsw\cg11\server\model\market\AssistantsOffer.java
C:\Users\francesco\git\cg11\src\main\java\it\polimi\ingsw\cg11\server\model\player\actions\BuildEmporiumWithKing.java
C:\Users\francesco\git\cg11\src\main\java\it\polimi\ingsw\cg11\client\gameclient\Client.java
C:\Users\francesco\git\cg11\src\main\java\it\polimi\ingsw\cg11\client\model\map\ClientRegion.java
C:\Users\francesco\git\cg11\src\main\java\it\polimi\ingsw\cg11\messages\SerializableChooseExtraBonus.java
C:\Users\francesco\git\cg11\src\main\java\it\polimi\ingsw\cg11\client\view\cli\CLI.java
C:\Users\francesco\git\cg11\src\main\java\it\polimi\ingsw\cg11\server\model\player\actions\EngageAnAssistant.java
C:\Users\francesco\git\cg11\src\main\java\it\polimi\ingsw\cg11\server\model\market\PermitCardOffer.java
C:\Users\francesco\git\cg11\src\main\java\it\polimi\ingsw\cg11\server\model\player\resources\PlayerDataFactory.java
C:\Users\francesco\git\cg11\src\main\java\it\polimi\ingsw\cg11\server\model\player\actions\SendChatMessage.java
C:\Users\francesco\git\cg11\src\main\java\it\polimi\ingsw\cg11\server\model\utils\visitorpattern\Visitable.java
C:\Users\francesco\git\cg11\src\main\java\it\polimi\ingsw\cg11\server\model\player\actions\ChooseExtraBonus.java
C:\Users\francesco\git\cg11\src\main\java\it\polimi\ingsw\cg11\server\model\exceptions\player\resources\NoPoliticCardOwnedException.java
C:\Users\francesco\git\cg11\src\main\java\it\polimi\ingsw\cg11\server\model\player\resources\NobilityPoints.java
C:\Users\francesco\git\cg11\src\main\java\it\polimi\ingsw\cg11\server\control\Controller.java
C:\Users\francesco\git\cg11\src\main\java\it\polimi\ingsw\cg11\server\model\exceptions\map\NoSuchCityException.java
C:\Users\francesco\git\cg11\src\main\java\it\polimi\ingsw\cg11\client\view\connections\ClientConnectionFactory.java
C:\Users\francesco\git\cg11\src\main\java\it\polimi\ingsw\cg11\server\model\utils\transactions\ExtraBonusTransaction.java
C:\Users\francesco\git\cg11\src\main\java\it\polimi\ingsw\cg11\server\model\cards\PermitsDeckFactory.java
C:\Users\francesco\git\cg11\src\main\java\it\polimi\ingsw\cg11\client\view\connections\ClientView.java
C:\Users\francesco\git\cg11\src\main\java\it\polimi\ingsw\cg11\server\model\controls\player\PlayerResourcesControls.java
C:\Users\francesco\git\cg11\src\main\java\it\polimi\ingsw\cg11\server\gameserver\GameFactory.java
C:\Users\francesco\git\cg11\src\main\java\it\polimi\ingsw\cg11\messages\SerializableChatMessage.java
C:\Users\francesco\git\cg11\src\main\java\it\polimi\ingsw\cg11\server\model\player\actionspool\GameAction.java
C:\Users\francesco\git\cg11\src\main\java\it\polimi\ingsw\cg11\messages\SerializableBuildEmporiumWithPermitCard.java
C:\Users\francesco\git\cg11\src\main\java\it\polimi\ingsw\cg11\server\model\player\actions\TakePermitCard.java
C:\Users\francesco\git\cg11\src\main\java\it\polimi\ingsw\cg11\server\model\utils\observerpattern\VisitableObservable.java
C:\Users\francesco\git\cg11\src\main\java\it\polimi\ingsw\cg11\server\model\actionsfactory\OfferPoliticCardFactory.java
C:\Users\francesco\git\cg11\src\main\java\it\polimi\ingsw\cg11\messages\SerializableChangePermitCards.java
C:\Users\francesco\git\cg11\src\main\java\it\polimi\ingsw\cg11\server\view\Token.java
C:\Users\francesco\git\cg11\src\main\java\it\polimi\ingsw\cg11\client\model\bonus\BonusChartFactory.java
C:\Users\francesco\git\cg11\src\main\java\it\polimi\ingsw\cg11\server\model\utils\publishsubscribe\ServerBrokerInterface.java
C:\Users\francesco\git\cg11\src\main\java\it\polimi\ingsw\cg11\server\model\exceptions\card\EmptyDeckException.java
C:\Users\francesco\git\cg11\src\main\java\it\polimi\ingsw\cg11\server\model\exceptions\tokens\NoSuchColoredCouncillorException.java
C:\Users\francesco\git\cg11\src\main\java\it\polimi\ingsw\cg11\server\model\utils\transactions\PoliticCardTransaction.java
C:\Users\francesco\git\cg11\src\main\java\it\polimi\ingsw\cg11\server\model\mapcomponents\map\CityEdge.java
C:\Users\francesco\git\cg11\src\main\java\it\polimi\ingsw\cg11\server\model\exceptions\player\action\NotAvailableMainActionException.java
C:\Users\francesco\git\cg11\src\main\java\it\polimi\ingsw\cg11\server\model\player\resources\VictoryPoints.java
C:\Users\francesco\git\cg11\src\main\java\it\polimi\ingsw\cg11\client\model\changes\ChangesTranslator.java
C:\Users\francesco\git\cg11\src\main\java\it\polimi\ingsw\cg11\server\model\exceptions\player\resources\IllegalResourceException.java
C:\Users\francesco\git\cg11\src\main\java\it\polimi\ingsw\cg11\server\model\utils\Bonus.java
C:\Users\francesco\git\cg11\src\main\java\it\polimi\ingsw\cg11\server\model\exceptions\tokens\NoSuchEmporiumException.java
C:\Users\francesco\git\cg11\src\main\java\it\polimi\ingsw\cg11\server\model\utils\publishsubscribe\ClientBrokerInterface.java
C:\Users\francesco\git\cg11\src\main\java\it\polimi\ingsw\cg11\server\model\actionsfactory\ActionFactory.java
C:\Users\francesco\git\cg11\src\main\java\it\polimi\ingsw\cg11\client\model\player\UserHand.java
C:\Users\francesco\git\cg11\src\main\java\it\polimi\ingsw\cg11\server\model\player\actionspool\MarketActionsHandler.java
C:\Users\francesco\git\cg11\src\main\java\it\polimi\ingsw\cg11\messages\SerializableAcceptMarketOffer.java
C:\Users\francesco\git\cg11\src\main\java\it\polimi\ingsw\cg11\server\model\player\resources\Hand.java
C:\Users\francesco\git\cg11\src\main\java\it\polimi\ingsw\cg11\server\model\exceptions\utils\IllegalBonusTypeException.java
C:\Users\francesco\git\cg11\src\main\java\it\polimi\ingsw\cg11\client\model\player\ClientEmporium.java
C:\Users\francesco\git\cg11\src\main\java\it\polimi\ingsw\cg11\server\gameserver\Game.java
C:\Users\francesco\git\cg11\src\main\java\it\polimi\ingsw\cg11\server\model\exceptions\map\CannotCreateMapException.java
C:\Users\francesco\git\cg11\src\main\java\it\polimi\ingsw\cg11\server\view\rmi\RemoteFactory.java
C:\Users\francesco\git\cg11\src\main\java\it\polimi\ingsw\cg11\messages\Messages.java
C:\Users\francesco\git\cg11\src\main\java\it\polimi\ingsw\cg11\server\model\actionsfactory\ElectCouncillorFactory.java
C:\Users\francesco\git\cg11\src\main\java\it\polimi\ingsw\cg11\server\model\cards\PoliticCard.java
C:\Users\francesco\git\cg11\src\main\java\it\polimi\ingsw\cg11\messages\SerializableElectCouncillorWithOneAssistant.java
C:\Users\francesco\git\cg11\src\main\java\it\polimi\ingsw\cg11\messages\SerializableChooseExtraPermit.java
C:\Users\francesco\git\cg11\src\main\java\it\polimi\ingsw\cg11\server\model\utils\transactions\NobilityTransaction.java
C:\Users\francesco\git\cg11\src\main\java\it\polimi\ingsw\cg11\server\model\exceptions\player\resources\NoEnoughMoneyException.java
C:\Users\francesco\git\cg11\src\main\java\it\polimi\ingsw\cg11\server\model\player\actions\BuildEmporiumWithPermitCard.java
C:\Users\francesco\git\cg11\src\main\java\it\polimi\ingsw\cg11\server\model\exceptions\map\NoSuchRegionException.java
C:\Users\francesco\git\cg11\src\main\java\it\polimi\ingsw\cg11\server\model\cards\PoliticsDeckFactory.java
C:\Users\francesco\git\cg11\src\main\java\it\polimi\ingsw\cg11\server\model\mapcomponents\other\NobilityPath.java
C:\Users\francesco\git\cg11\src\main\java\it\polimi\ingsw\cg11\server\model\utils\transactions\MainActionTransaction.java
C:\Users\francesco\git\cg11\src\main\java\it\polimi\ingsw\cg11\server\view\socket\SocketServer.java
C:\Users\francesco\git\cg11\src\main\java\it\polimi\ingsw\cg11\server\model\mapcomponents\city\City.java
C:\Users\francesco\git\cg11\src\main\java\it\polimi\ingsw\cg11\client\gameclient\ClientGameInitializer.java
C:\Users\francesco\git\cg11\src\main\java\it\polimi\ingsw\cg11\server\model\utils\transactions\PermitCardTransaction.java
C:\Users\francesco\git\cg11\src\main\java\it\polimi\ingsw\cg11\client\model\changes\ChoicesTranslator.java
C:\Users\francesco\git\cg11\src\main\java\it\polimi\ingsw\cg11\server\model\player\actionspool\MainAction.java
C:\Users\francesco\git\cg11\src\main\java\it\polimi\ingsw\cg11\server\model\player\actionspool\QuickActionsHandler.java
C:\Users\francesco\git\cg11\src\main\java\it\polimi\ingsw\cg11\server\model\cards\RandomPoliticDeckFactory.java
C:\Users\francesco\git\cg11\src\main\java\it\polimi\ingsw\cg11\server\model\utils\publishsubscribe\SubscriberUserInterface.java
C:\Users\francesco\git\cg11\src\main\java\it\polimi\ingsw\cg11\server\model\mapcomponents\map\GameMap.java
C:\Users\francesco\git\cg11\src\main\java\it\polimi\ingsw\cg11\server\model\exceptions\player\action\NoPlayerTurnException.java
C:\Users\francesco\git\cg11\src\main\java\it\polimi\ingsw\cg11\server\model\player\actions\OneMoreMainAction.java
C:\Users\francesco\git\cg11\src\main\java\it\polimi\ingsw\cg11\server\model\actionsfactory\TakePermitCardFactory.java
C:\Users\francesco\git\cg11\src\main\java\it\polimi\ingsw\cg11\server\model\actionsfactory\ElectCouncillorWithOneAssistantFactory.java
C:\Users\francesco\git\cg11\src\main\java\it\polimi\ingsw\cg11\server\model\mapcomponents\map\GraphedMap.java
C:\Users\francesco\git\cg11\src\main\java\it\polimi\ingsw\cg11\messages\DisconnectedPlayerMessage.java
C:\Users\francesco\git\cg11\src\main\java\it\polimi\ingsw\cg11\server\model\utils\FileToJson.java
C:\Users\francesco\git\cg11\src\main\java\it\polimi\ingsw\cg11\server\model\controls\cards\CardsControls.java
C:\Users\francesco\git\cg11\src\main\java\it\polimi\ingsw\cg11\server\model\utils\observerpattern\ObserverChange.java
C:\Users\francesco\git\cg11\src\main\java\it\polimi\ingsw\cg11\server\model\utils\visitorpattern\ServerVisitor.java
C:\Users\francesco\git\cg11\src\main\java\it\polimi\ingsw\cg11\server\model\actionsfactory\AcceptMarketOfferFactory.java
C:\Users\francesco\git\cg11\src\main\java\it\polimi\ingsw\cg11\server\model\player\actions\ChooseExtraPermit.java
C:\Users\francesco\git\cg11\src\main\java\it\polimi\ingsw\cg11\client\view\connections\ClientSocketView.java
C:\Users\francesco\git\cg11\src\main\java\it\polimi\ingsw\cg11\server\model\exceptions\card\IllegalPoliticCardsException.java
C:\Users\francesco\git\cg11\src\main\java\it\polimi\ingsw\cg11\server\model\exceptions\utils\ColorNotFoundException.java
C:\Users\francesco\git\cg11\src\main\java\it\polimi\ingsw\cg11\messages\ModelChanges.java
C:\Users\francesco\git\cg11\src\main\java\it\polimi\ingsw\cg11\server\model\mapcomponents\map\LastTurnManager.java
C:\Users\francesco\git\cg11\src\main\java\it\polimi\ingsw\cg11\server\model\exceptions\player\action\AvailableMandatoryMainActionException.java
C:\Users\francesco\git\cg11\src\main\java\it\polimi\ingsw\cg11\server\model\player\actions\OfferPoliticCard.java
C:\Users\francesco\git\cg11\src\main\java\it\polimi\ingsw\cg11\client\view\common\GraphicView.java
C:\Users\francesco\git\cg11\src\main\java\it\polimi\ingsw\cg11\server\model\mapcomponents\region\FaceUpPermits.java
C:\Users\francesco\git\cg11\src\main\java\it\polimi\ingsw\cg11\server\model\actionsfactory\ChooseExtraPermitFactory.java
C:\Users\francesco\git\cg11\src\main\java\it\polimi\ingsw\cg11\server\model\mapcomponents\region\Region.java
C:\Users\francesco\git\cg11\src\main\java\it\polimi\ingsw\cg11\messages\SerializableBuildEmporiumWithKing.java
C:\Users\francesco\git\cg11\src\main\java\it\polimi\ingsw\cg11\server\control\Performable.java
C:\Users\francesco\git\cg11\src\main\java\it\polimi\ingsw\cg11\server\view\View.java
C:\Users\francesco\git\cg11\src\main\java\it\polimi\ingsw\cg11\client\model\bonus\ColorBonusChart.java
C:\Users\francesco\git\cg11\src\main\java\it\polimi\ingsw\cg11\client\model\changes\ChangesMessage.java
C:\Users\francesco\git\cg11\src\main\java\it\polimi\ingsw\cg11\server\model\player\actions\ActionServiceMethods.java
C:\Users\francesco\git\cg11\src\main\java\it\polimi\ingsw\cg11\server\model\actionsfactory\OfferAssistantsFactory.java
C:\Users\francesco\git\cg11\src\main\java\it\polimi\ingsw\cg11\server\model\player\resources\OfferedResources.java
C:\Users\francesco\git\cg11\src\main\java\it\polimi\ingsw\cg11\server\model\mapcomponents\tokens\RandomCouncillorPoolManager.java
C:\Users\francesco\git\cg11\src\main\java\it\polimi\ingsw\cg11\server\model\player\actions\OfferPermitCard.java
C:\Users\francesco\git\cg11\src\main\java\it\polimi\ingsw\cg11\server\model\player\actionspool\MainActionsHandler.java
C:\Users\francesco\git\cg11\src\main\java\it\polimi\ingsw\cg11\client\model\exceptions\NotWellFormedInputCommandException.java
C:\Users\francesco\git\cg11\src\main\java\it\polimi\ingsw\cg11\messages\ErrorMessage.java
C:\Users\francesco\git\cg11\src\main\java\it\polimi\ingsw\cg11\server\model\mapcomponents\pieces\Piece.java
C:\Users\francesco\git\cg11\src\main\java\it\polimi\ingsw\cg11\server\model\actionsfactory\ChangePermitCardsFactory.java
C:\Users\francesco\git\cg11\src\main\java\it\polimi\ingsw\cg11\server\model\player\resources\PermitsHand.java
C:\Users\francesco\git\cg11\src\main\java\it\polimi\ingsw\cg11\server\model\player\resources\Assistants.java
C:\Users\francesco\git\cg11\src\main\java\it\polimi\ingsw\cg11\server\model\player\actionspool\PlayerChoice.java
C:\Users\francesco\git\cg11\src\main\java\it\polimi\ingsw\cg11\client\view\cli\InputParser.java
C:\Users\francesco\git\cg11\src\main\java\it\polimi\ingsw\cg11\server\model\utils\ResourcesPath.java
C:\Users\francesco\git\cg11\src\main\java\it\polimi\ingsw\cg11\server\model\utils\visitorpattern\ClientVisitor.java
C:\Users\francesco\git\cg11\src\main\java\it\polimi\ingsw\cg11\server\model\exceptions\player\resources\NoEnoughAssistantsException.java
C:\Users\francesco\git\cg11\src\main\java\it\polimi\ingsw\cg11\server\model\player\actionspool\PlayerState.java
C:\Users\francesco\git\cg11\src\main\java\it\polimi\ingsw\cg11\server\model\utils\publishsubscribe\Broker.java
C:\Users\francesco\git\cg11\src\main\java\it\polimi\ingsw\cg11\messages\SerializableOfferPoliticCard.java
C:\Users\francesco\git\cg11\src\main\java\it\polimi\ingsw\cg11\server\model\actionsfactory\EngageAnAssistantFactory.java
C:\Users\francesco\git\cg11\src\main\java\it\polimi\ingsw\cg11\server\gameserver\ConnectionsHandler.java
C:\Users\francesco\git\cg11\src\main\java\it\polimi\ingsw\cg11\server\model\market\MarketOffers.java
C:\Users\francesco\git\cg11\src\main\java\it\polimi\ingsw\cg11\server\model\player\actionspool\QuickAction.java
C:\Users\francesco\git\cg11\src\main\java\it\polimi\ingsw\cg11\messages\SerializableElectCouncillor.java
C:\Users\francesco\git\cg11\src\main\java\it\polimi\ingsw\cg11\server\model\mapcomponents\other\Balcony.java
C:\Users\francesco\git\cg11\src\main\java\it\polimi\ingsw\cg11\client\view\cli\ScreenFormat.java
C:\Users\francesco\git\cg11\src\main\java\it\polimi\ingsw\cg11\client\model\exceptions\ConnectionException.java
C:\Users\francesco\git\cg11\src\main\java\it\polimi\ingsw\cg11\server\model\exceptions\NoSuchViewException.java
C:\Users\francesco\git\cg11\src\main\java\it\polimi\ingsw\cg11\client\model\player\PlayerEmporiums.java
C:\Users\francesco\git\cg11\src\main\java\it\polimi\ingsw\cg11\server\model\controls\gamephase\GamePhaseControl.java
C:\Users\francesco\git\cg11\src\main\java\it\polimi\ingsw\cg11\client\controller\ClientController.java
C:\Users\francesco\git\cg11\src\main\java\it\polimi\ingsw\cg11\server\view\socket\SocketView.java
C:\Users\francesco\git\cg11\src\main\java\it\polimi\ingsw\cg11\server\model\controls\mapcomponents\CityControls.java
C:\Users\francesco\git\cg11\src\main\java\it\polimi\ingsw\cg11\messages\SerializableOneMoreMainAction.java
C:\Users\francesco\git\cg11\src\main\java\it\polimi\ingsw\cg11\server\model\utils\transactions\AssistantsTransaction.java
C:\Users\francesco\git\cg11\src\main\java\it\polimi\ingsw\cg11\server\model\mapcomponents\region\StandardRegionFactory.java
C:\Users\francesco\git\cg11\src\main\java\it\polimi\ingsw\cg11\server\model\exceptions\map\ExistEmporiumException.java
C:\Users\francesco\git\cg11\src\main\java\it\polimi\ingsw\cg11\server\model\player\resources\PlayerData.java
C:\Users\francesco\git\cg11\src\main\java\it\polimi\ingsw\cg11\messages\SerializableMapStartupConfig.java
C:\Users\francesco\git\cg11\src\main\java\it\polimi\ingsw\cg11\server\model\player\resources\PoliticsHand.java
C:\Users\francesco\git\cg11\src\main\java\it\polimi\ingsw\cg11\client\gameclient\InitialCLI.java
C:\Users\francesco\git\cg11\src\main\java\it\polimi\ingsw\cg11\messages\SerializableOfferAssistants.java
C:\Users\francesco\git\cg11\src\main\java\it\polimi\ingsw\cg11\server\model\exceptions\player\action\NotAvailableQuickActionException.java
C:\Users\francesco\git\cg11\src\main\java\it\polimi\ingsw\cg11\server\model\mapcomponents\pieces\King.java
C:\Users\francesco\git\cg11\src\main\java\it\polimi\ingsw\cg11\server\model\controls\mapcomponents\RegionControls.java
C:\Users\francesco\git\cg11\src\main\java\it\polimi\ingsw\cg11\server\model\utils\observerpattern\Observer.java
C:\Users\francesco\git\cg11\src\main\java\it\polimi\ingsw\cg11\client\model\changes\MainActionsTranslator.java
C:\Users\francesco\git\cg11\src\main\java\it\polimi\ingsw\cg11\messages\SerializableChooseExtraPermitBonus.java
C:\Users\francesco\git\cg11\src\main\java\it\polimi\ingsw\cg11\server\model\mapcomponents\tokens\Councillor.java
C:\Users\francesco\git\cg11\src\main\java\it\polimi\ingsw\cg11\server\model\exceptions\player\action\AvailableMandatoryPlayerChoiceException.java
C:\Users\francesco\git\cg11\src\main\java\it\polimi\ingsw\cg11\server\model\mapcomponents\tokens\CouncillorPoolManager.java
C:\Users\francesco\git\cg11\src\main\java\it\polimi\ingsw\cg11\server\model\mapcomponents\tokens\EmporiumPoolManager.java
C:\Users\francesco\git\cg11\src\main\java\it\polimi\ingsw\cg11\client\model\cards\ClientPoliticCard.java
C:\Users\francesco\git\cg11\src\main\java\it\polimi\ingsw\cg11\server\model\exceptions\map\NoCouncillorContainedException.java
C:\Users\francesco\git\cg11\src\main\java\it\polimi\ingsw\cg11\server\gameserver\Server.java
C:\Users\francesco\git\cg11\src\main\java\it\polimi\ingsw\cg11\server\model\actionsfactory\OneMoreMainActionFactory.java
C:\Users\francesco\git\cg11\src\main\java\it\polimi\ingsw\cg11\server\model\controls\mapcomponents\TokenControls.java
C:\Users\francesco\git\cg11\src\main\java\it\polimi\ingsw\cg11\server\model\controls\player\PlayerControls.java
C:\Users\francesco\git\cg11\src\main\java\it\polimi\ingsw\cg11\server\model\mapcomponents\map\GamePhaseManager.java
C:\Users\francesco\git\cg11\src\main\java\it\polimi\ingsw\cg11\server\model\exceptions\map\NoSuchFaceUpPermitsException.java
C:\Users\francesco\git\cg11\src\main\java\it\polimi\ingsw\cg11\server\model\market\PoliticCardOffer.java
C:\Users\francesco\git\cg11\src\main\java\it\polimi\ingsw\cg11\server\model\utils\ColorMap.java
C:\Users\francesco\git\cg11\src\main\java\it\polimi\ingsw\cg11\server\model\controls\bonus\BonusControls.java
C:\Users\francesco\git\cg11\src\main\java\it\polimi\ingsw\cg11\server\model\player\actionspool\PlayerChoicesHandler.java
C:\Users\francesco\git\cg11\src\main\java\it\polimi\ingsw\cg11\client\model\changes\QuickActionsTranslator.java
C:\Users\francesco\git\cg11\src\main\java\it\polimi\ingsw\cg11\client\model\map\ClientKing.java
C:\Users\francesco\git\cg11\src\main\java\it\polimi\ingsw\cg11\server\model\exceptions\player\command\IllegalCreationCommandException.java
C:\Users\francesco\git\cg11\src\main\java\it\polimi\ingsw\cg11\server\model\player\resources\Money.java
C:\Users\francesco\git\cg11\src\main\java\it\polimi\ingsw\cg11\server\model\exceptions\card\EmptyPermitDeckException.java
C:\Users\francesco\git\cg11\src\main\java\it\polimi\ingsw\cg11\server\model\player\actions\ElectCouncillor.java
C:\Users\francesco\git\cg11\src\main\java\it\polimi\ingsw\cg11\server\model\utils\publishsubscribe\PublisherInterface.java
C:\Users\francesco\git\cg11\src\main\java\it\polimi\ingsw\cg11\client\model\bonus\BonusChart.java
C:\Users\francesco\git\cg11\src\main\java\it\polimi\ingsw\cg11\server\model\mapcomponents\map\TurnManager.java
C:\Users\francesco\git\cg11\src\main\java\it\polimi\ingsw\cg11\server\model\mapcomponents\city\CityFactory.java
C:\Users\francesco\git\cg11\src\main\java\it\polimi\ingsw\cg11\server\model\actionsfactory\ChooseExtraBonusFactory.java
C:\Users\francesco\git\cg11\src\main\java\it\polimi\ingsw\cg11\client\model\map\VisibleBalcony.java
C:\Users\francesco\git\cg11\src\main\java\it\polimi\ingsw\cg11\server\model\utils\ColoredBonus.java
C:\Users\francesco\git\cg11\src\main\java\it\polimi\ingsw\cg11\server\model\market\MarketOfferFactory.java
C:\Users\francesco\git\cg11\src\main\java\it\polimi\ingsw\cg11\server\model\utils\BonusFactory.java
C:\Users\francesco\git\cg11\src\main\java\it\polimi\ingsw\cg11\server\model\actionsfactory\BuildEmporiumWithKingFactory.java
C:\Users\francesco\git\cg11\src\main\java\it\polimi\ingsw\cg11\client\model\map\ClientMap.java
C:\Users\francesco\git\cg11\src\main\java\it\polimi\ingsw\cg11\server\model\utils\transactions\PermitBonusTransaction.java
C:\Users\francesco\git\cg11\src\main\java\it\polimi\ingsw\cg11\server\model\exceptions\player\action\NotAllowedActionException.java
C:\Users\francesco\git\cg11\src\main\java\it\polimi\ingsw\cg11\client\model\player\OpponentHand.java
C:\Users\francesco\git\cg11\src\main\java\it\polimi\ingsw\cg11\server\model\exceptions\card\EmptyFaceUpPermitsException.java
C:\Users\francesco\git\cg11\src\main\java\it\polimi\ingsw\cg11\server\model\player\actions\ElectCouncillorWithOneAssistant.java
C:\Users\francesco\git\cg11\src\main\java\it\polimi\ingsw\cg11\server\model\mapcomponents\tokens\Emporium.java
C:\Users\francesco\git\cg11\src\main\java\it\polimi\ingsw\cg11\server\model\player\actions\ChangePermitCards.java
C:\Users\francesco\git\cg11\src\main\java\it\polimi\ingsw\cg11\server\model\actionsfactory\SendChatMessageFactory.java
C:\Users\francesco\git\cg11\src\main\java\it\polimi\ingsw\cg11\server\model\utils\AsString.java
C:\Users\francesco\git\cg11\src\main\java\it\polimi\ingsw\cg11\messages\SerializableTakePermitCard.java
C:\Users\francesco\git\cg11\src\main\java\it\polimi\ingsw\cg11\client\model\player\PlayerResourcesChart.java
C:\Users\francesco\git\cg11\src\main\java\it\polimi\ingsw\cg11\messages\GenericMessage.java
C:\Users\francesco\git\cg11\src\main\java\it\polimi\ingsw\cg11\client\model\cards\ClientPermitCardFactory.java
C:\Users\francesco\git\cg11\src\main\java\it\polimi\ingsw\cg11\server\model\actionsfactory\OfferPermitCardFactory.java
C:\Users\francesco\git\cg11\src\main\java\it\polimi\ingsw\cg11\server\model\utils\transactions\VictoryPointsTransaction.java
C:\Users\francesco\git\cg11\src\main\java\it\polimi\ingsw\cg11\client\model\map\MarketChart.java
C:\Users\francesco\git\cg11\src\main\java\it\polimi\ingsw\cg11\server\model\player\actions\Finish.java
